\relax 
\providecommand\hyper@newdestlabel[2]{}
\providecommand*\new@tpo@label[2]{}
\@nameuse{bbl@beforestart}
\catcode `"\active 
\abx@aux@refcontext{nty/global//global/global}
\providecommand\HyperFirstAtBeginDocument{\AtBeginDocument}
\HyperFirstAtBeginDocument{\ifx\hyper@anchor\@undefined
\global\let\oldcontentsline\contentsline
\gdef\contentsline#1#2#3#4{\oldcontentsline{#1}{#2}{#3}}
\global\let\oldnewlabel\newlabel
\gdef\newlabel#1#2{\newlabelxx{#1}#2}
\gdef\newlabelxx#1#2#3#4#5#6{\oldnewlabel{#1}{{#2}{#3}}}
\AtEndDocument{\ifx\hyper@anchor\@undefined
\let\contentsline\oldcontentsline
\let\newlabel\oldnewlabel
\fi}
\fi}
\global\let\hyper@last\relax 
\gdef\HyperFirstAtBeginDocument#1{#1}
\providecommand\HyField@AuxAddToFields[1]{}
\providecommand\HyField@AuxAddToCoFields[2]{}
\providecommand\BKM@entry[2]{}
\@input{_includes/titlepage.aux}
\providecommand\@newglossary[4]{}
\@newglossary{main}{glg}{gls}{glo}
\@newglossary{acronym}{alg}{acr}{acn}
\providecommand\@glsorder[1]{}
\providecommand\@istfilename[1]{}
\@istfilename{main.ist}
\@glsorder{word}
\@writefile{toc}{\boolfalse {citerequest}\boolfalse {citetracker}\boolfalse {pagetracker}\boolfalse {backtracker}\relax }
\@writefile{lof}{\boolfalse {citerequest}\boolfalse {citetracker}\boolfalse {pagetracker}\boolfalse {backtracker}\relax }
\@writefile{lot}{\boolfalse {citerequest}\boolfalse {citetracker}\boolfalse {pagetracker}\boolfalse {backtracker}\relax }
\babel@aux{ngerman}{}
\providecommand {\FN@pp@footnotehinttrue }{}
\providecommand {\FN@pp@footnote@aux }[2]{}
\FN@pp@footnotehinttrue 
\@input{_includes/erklaerung.aux}
\FN@pp@footnotehinttrue 
\FN@pp@footnotehinttrue 
\FN@pp@footnotehinttrue 
\FN@pp@footnotehinttrue 
\@input{acronyms/acronyms.aux}
\@input{chapters/1_einleitung.aux}
\BKM@entry{id=1,open,dest={636861707465722E31},srcline={12}}{45696E6C656974756E67}
\BKM@entry{id=2,dest={73656374696F6E2E312E31},srcline={16}}{4D6F7469766174696F6E}
\FN@pp@footnotehinttrue 
\BKM@entry{id=3,dest={73756273656374696F6E2E312E312E31},srcline={23}}{496E7465726D6F64616C6572205665726B6568723A20526973696B656E20756E64207A756B5C3337346E667469676520426564657574756E67}
\BKM@entry{id=4,dest={73756273656374696F6E2E312E312E32},srcline={30}}{44617320466F72736368756E677370726F6A656B742046454E4958}
\BKM@entry{id=5,dest={73656374696F6E2E312E32},srcline={44}}{5A69656C7365747A756E67}
\BKM@entry{id=6,dest={73656374696F6E2E312E33},srcline={54}}{4D6574686F64696B2064657220417262656974}
\@input{chapters/2_sota.aux}
\FN@pp@footnotehinttrue 
\BKM@entry{id=7,open,dest={636861707465722E32},srcline={1}}{4772756E646C6167656E20756E64205374616E642064657220546563686E696B}
\BKM@entry{id=8,dest={73656374696F6E2E322E31},srcline={14}}{4772756E646C6167656E20646572204C6F67697374696B}
\BKM@entry{id=9,dest={73656374696F6E2E322E32},srcline={35}}{475C3337347465727665726B65687220756E64205472616E73706F72746B657474656E}
\BKM@entry{id=10,dest={73756273656374696F6E2E322E322E31},srcline={45}}{45696E676C69656472696765205472616E73706F72746B657474656E}
\BKM@entry{id=11,dest={73756273656374696F6E2E322E322E32},srcline={55}}{4D656872676C69656472696765205472616E73706F72746B657474656E}
\BKM@entry{id=12,dest={73656374696F6E2E322E33},srcline={66}}{496E7465726D6F64616C657220475C3337347465727472616E73706F7274}
\BKM@entry{id=13,dest={73656374696F6E2E322E34},srcline={109}}{56657277616E6474652053745C33363672756E67656E20696D205472616E73706F727461626C617566}
\BKM@entry{id=14,dest={73656374696F6E2E322E35},srcline={117}}{536F66747761726564657369676E}
\BKM@entry{id=15,dest={73756273656374696F6E2E322E352E31},srcline={118}}{496E666F726D6174696F6E73746563686E6F6C6F6769656E2064657320576562}
\BKM@entry{id=16,dest={73756273656374696F6E2E322E352E32},srcline={122}}{4772756E646C6167656E2064657320526571756972656D656E747320456E67696E656572696E67}
\BKM@entry{id=17,dest={73756273656374696F6E2E322E352E33},srcline={155}}{4D6F64656C6C696572756E6720696E2064657220536F667477617265656E747769636B6C756E67}
\abx@aux@cite{Selic.2003}
\abx@aux@segm{0}{0}{Selic.2003}
\abx@aux@cite{Bernroider.2006}
\abx@aux@segm{0}{0}{Bernroider.2006}
\abx@aux@cite{DirkStahler.2012}
\abx@aux@segm{0}{0}{DirkStahler.2012}
\abx@aux@cite{GeroDecker.}
\abx@aux@segm{0}{0}{GeroDecker.}
\@input{chapters/3_anforderungen.aux}
\BKM@entry{id=18,open,dest={636861707465722E33},srcline={1}}{416E666F72646572756E67656E}
\BKM@entry{id=19,dest={73656374696F6E2E332E31},srcline={4}}{4D6574686F64696B207A757220416E666F72646572756E6773616E616C797365}
\BKM@entry{id=20,dest={73656374696F6E2E332E32},srcline={12}}{457870657274656E696E7465727669657773}
\BKM@entry{id=21,dest={73756273656374696F6E2E332E322E31},srcline={13}}{5374616B65686F6C646572204964656E746966696B6174696F6E}
\FN@pp@footnotehinttrue 
\BKM@entry{id=22,dest={73756273656374696F6E2E332E322E32},srcline={15}}{4B6F6E7A65707420756E642041626C6175662064657220496E7465727669657773}
\BKM@entry{id=23,dest={73756273656374696F6E2E332E322E33},srcline={16}}{46726167656E6B6174616C6F67}
\BKM@entry{id=24,dest={73756273656374696F6E2E332E322E34},srcline={17}}{45726765626E69737365}
\BKM@entry{id=25,dest={73656374696F6E2E332E33},srcline={20}}{576F726B73686F7073}
\BKM@entry{id=26,dest={73756273656374696F6E2E332E332E31},srcline={21}}{5A69656C7365747A756E6720756E6420526F6C6C656E20696D20576F726B73686F70}
\BKM@entry{id=27,dest={73756273656374696F6E2E332E332E32},srcline={27}}{4B6F6E7A65707420756E642041626C6175662064657320576F726B73686F7073}
\BKM@entry{id=28,dest={73756273656374696F6E2E332E332E33},srcline={117}}{45726765626E69737365}
\BKM@entry{id=29,dest={73656374696F6E2E332E34},srcline={161}}{5A7769736368656E66617A6974}
\BKM@entry{id=30,dest={73756273656374696F6E2E332E342E31},srcline={162}}{5A7769736368656E66617A6974207A7520416E666F72646572756E67656E}
\BKM@entry{id=31,dest={73756273656374696F6E2E332E342E32},srcline={163}}{41626C656974756E6720766F6E20416E77656E64756E6773665C3334346C6C656E}
\@input{chapters/4_erarbeitung.aux}
\FN@pp@footnotehinttrue 
\BKM@entry{id=32,open,dest={636861707465722E34},srcline={1}}{4572617262656974756E672065696E65732053745C33363672756E67736D616E6167656D656E7473}
\BKM@entry{id=33,dest={73656374696F6E2E342E31},srcline={12}}{416E77656E64756E677366E46C6C65}
\BKM@entry{id=34,dest={73756273656374696F6E2E342E312E31},srcline={20}}{416E77656E64756E677366616C6C3A2046616872657261757366616C6C}
\BKM@entry{id=35,dest={73756273656374696F6E2E342E312E32},srcline={42}}{416E77656E64756E677366616C6C3A20466168727A65756761757366616C6C}
\BKM@entry{id=36,dest={73756273656374696F6E2E342E312E33},srcline={43}}{416E77656E64756E677366616C6C3A204C696E69656E61757366616C6C}
\BKM@entry{id=37,dest={73656374696F6E2E342E32},srcline={46}}{5374F672756E67736D616E6167656D656E7420756E6420417263686974656B747572}
\BKM@entry{id=38,dest={73756273656374696F6E2E342E322E31},srcline={47}}{4D6F64656C6C20646573205374F672756E67736D616E6167656D656E7473}
\BKM@entry{id=39,dest={73756273656374696F6E2E342E322E32},srcline={104}}{53797374656D20417263686974656B747572}
\BKM@entry{id=40,dest={73756273656374696F6E2E342E322E33},srcline={182}}{417566626175205374F672756E67736B6174616C6F67}
\@input{chapters/5_implementierung.aux}
\BKM@entry{id=41,open,dest={636861707465722E35},srcline={1}}{496D706C656D656E74696572756E67}
\FN@pp@footnotehinttrue 
\BKM@entry{id=42,dest={73656374696F6E2E352E31},srcline={5}}{44657369676E205573657220496E74657266616365}
\BKM@entry{id=43,dest={73756273656374696F6E2E352E312E31},srcline={6}}{4F626572666C5C3334346368656E6B6F6E7A657074}
\BKM@entry{id=44,dest={73756273656374696F6E2E352E312E32},srcline={8}}{4B6F6D706F6E656E74656E20646572205765626170706C696B6174696F6E}
\BKM@entry{id=45,dest={73656374696F6E2E352E32},srcline={18}}{53696D756C6174696F6E}
\BKM@entry{id=46,dest={73756273656374696F6E2E352E322E31},srcline={20}}{53696D756C6174696F6E20766F6E205374616D6D646174656E}
\BKM@entry{id=47,dest={73756273656374696F6E2E352E322E32},srcline={21}}{53696D756C6174696F6E20766F6E20416E77656E64756E6773665C3334346C6C656E}
\@input{chapters/6_evaluation.aux}
\FN@pp@footnotehinttrue 
\BKM@entry{id=48,open,dest={636861707465722E36},srcline={1}}{4576616C756174696F6E}
\BKM@entry{id=49,dest={73656374696F6E2E362E31},srcline={5}}{41757377657274756E67}
\BKM@entry{id=50,dest={73656374696F6E2E362E32},srcline={9}}{46617A6974}
\@input{chapters/7_zusammenfassung.aux}
\FN@pp@footnotehinttrue 
\BKM@entry{id=51,open,dest={636861707465722E37},srcline={1}}{5A7573616D6D656E66617373756E6720756E6420417573626C69636B}
\BKM@entry{id=52,open,dest={617070656E6469782E41},srcline={1}}{416E68616E67}
\BKM@entry{id=53,dest={73656374696F6E2E412E31},srcline={7}}{536368726966746C6963686520417573617262656974756E67}
\abx@aux@cite{scheibl85}
\abx@aux@segm{0}{0}{scheibl85}
\abx@aux@cite{knuth.literate84}
\abx@aux@segm{0}{0}{knuth.literate84}
\abx@aux@cite{nm.epinjava}
\abx@aux@segm{0}{0}{nm.epinjava}
\abx@aux@cite{lamportlatex}
\abx@aux@segm{0}{0}{lamportlatex}
\FN@pp@footnotehinttrue 
\FN@pp@footnotehinttrue 
\@writefile{toc}{\defcounter {refsection}{0}\relax }\@writefile{toc}{\contentsline {chapter}{\numberline {A}Anhang}{i}{appendix.A}\protected@file@percent }
\@writefile{lof}{\defcounter {refsection}{0}\relax }\@writefile{lof}{\addvspace {10\p@ }}
\@writefile{lot}{\defcounter {refsection}{0}\relax }\@writefile{lot}{\addvspace {10\p@ }}
\@writefile{lol}{\defcounter {refsection}{0}\relax }\@writefile{lol}{\addvspace {10\p@ }}
\@writefile{toc}{\defcounter {refsection}{0}\relax }\@writefile{toc}{\contentsline {section}{\numberline {A.1}Schriftliche Ausarbeitung}{i}{section.A.1}\protected@file@percent }
\abx@aux@backref{1}{scheibl85}{0}{i}{1}
\abx@aux@backref{2}{knuth.literate84}{0}{i}{1}
\abx@aux@backref{3}{nm.epinjava}{0}{i}{1}
\abx@aux@backref{4}{lamportlatex}{0}{i}{1}
\FN@pp@footnote@aux{1}{i}
\BKM@entry{id=54,dest={73656374696F6E2E412E32},srcline={75}}{566F72676568656E737765697365}
\FN@pp@footnote@aux{2}{ii}
\abx@aux@cite{smartquestions}
\abx@aux@segm{0}{0}{smartquestions}
\abx@aux@cite{seusdiplomfaq}
\abx@aux@segm{0}{0}{seusdiplomfaq}
\BKM@entry{id=55,dest={73656374696F6E2E412E33},srcline={88}}{456469746F72656E}
\@writefile{lot}{\defcounter {refsection}{0}\relax }\@writefile{lot}{\contentsline {table}{\numberline {A.1}{\ignorespaces Einbindung von Abkürzungen mit \texttt  {glossaries}\relax }}{iii}{table.caption.30}\protected@file@percent }
\providecommand*\caption@xref[2]{\@setref\relax\@undefined{#1}}
\newlabel{tab:glossariesusage}{{A.1}{iii}{Einbindung von Abkürzungen mit \texttt {glossaries}\relax }{table.caption.30}{}}
\@writefile{toc}{\defcounter {refsection}{0}\relax }\@writefile{toc}{\contentsline {section}{\numberline {A.2}Vorgehensweise}{iii}{section.A.2}\protected@file@percent }
\@writefile{tdo}{\defcounter {refsection}{0}\relax }\@writefile{tdo}{\contentsline {todo}{\color@fb@x {}{black}{}{orange}{\leavevmode {\color  {orange}o}}\ Eine seitliche Notiz mit \texttt  {\textbackslash {}todo\{\}}}{iii}{section*.32}\protected@file@percent }
\pgfsyspdfmark {pgfid2}{14729118}{19467869}
\pgfsyspdfmark {pgfid5}{35368302}{19463025}
\pgfsyspdfmark {pgfid6}{38120967}{19215447}
\abx@aux@backref{5}{smartquestions}{0}{iii}{3}
\abx@aux@backref{6}{seusdiplomfaq}{0}{iii}{3}
\@writefile{tdo}{\defcounter {refsection}{0}\relax }\@writefile{tdo}{\contentsline {todo}{\color@fb@x {}{black}{}{orange}{\leavevmode {\color  {orange}o}}\ Eine Inline-Notiz mit \texttt  {\textbackslash {}todo[inline]\{\}}}{iii}{section*.33}\protected@file@percent }
\pgfsyspdfmark {pgfid7}{18835530}{15554553}
\@writefile{lof}{\defcounter {refsection}{0}\relax }\@writefile{lof}{\contentsline {figure}{\numberline {A.1}{\ignorespaces Rock, Paper, Scissors, Lizard, Spock\relax }}{iv}{figure.caption.31}\protected@file@percent }
\newlabel{fig:rpsls}{{A.1}{iv}{Rock, Paper, Scissors, Lizard, Spock\relax }{figure.caption.31}{}}
\@writefile{toc}{\defcounter {refsection}{0}\relax }\@writefile{toc}{\contentsline {section}{\numberline {A.3}Editoren}{iv}{section.A.3}\protected@file@percent }
\FN@pp@footnote@aux{3}{iv}
\FN@pp@footnotehinttrue 
\BKM@entry{id=56,open,dest={636861707465722A2E3334},srcline={65}}{416262696C64756E67737665727A656963686E6973}
\FN@pp@footnotehinttrue 
\@writefile{toc}{\defcounter {refsection}{0}\relax }\@writefile{toc}{\contentsline {chapter}{\nonumberline Abbildungsverzeichnis}{v}{chapter*.34}\protected@file@percent }
\FN@pp@footnotehinttrue 
\FN@pp@footnotehinttrue 
\BKM@entry{id=57,open,dest={636861707465722A2E3335},srcline={79}}{4C69746572617475727665727A656963686E6973}
\@writefile{toc}{\defcounter {refsection}{0}\relax }\@writefile{toc}{\contentsline {chapter}{\nonumberline Literaturverzeichnis}{vii}{chapter*.35}\protected@file@percent }
\@writefile{lof}{\defcounter {refsection}{0}\relax }\@writefile{lof}{\addvspace {10\p@ }}
\@writefile{lot}{\defcounter {refsection}{0}\relax }\@writefile{lot}{\addvspace {10\p@ }}
\@writefile{lol}{\defcounter {refsection}{0}\relax }\@writefile{lol}{\addvspace {10\p@ }}
\abx@aux@refcontextdefaultsdone
\abx@aux@defaultrefcontext{0}{acmdl}{nty/global//global/global}
\abx@aux@defaultrefcontext{0}{googlescholar}{nty/global//global/global}
\abx@aux@defaultrefcontext{0}{ieeeexplore}{nty/global//global/global}
\abx@aux@defaultrefcontext{0}{seusdiplomfaq}{nty/global//global/global}
\abx@aux@defaultrefcontext{0}{knuth.literate84}{nty/global//global/global}
\abx@aux@defaultrefcontext{0}{lamportlatex}{nty/global//global/global}
\abx@aux@defaultrefcontext{0}{nm.epinjava}{nty/global//global/global}
\abx@aux@defaultrefcontext{0}{smartquestions}{nty/global//global/global}
\abx@aux@defaultrefcontext{0}{scheibl85}{nty/global//global/global}
\abx@aux@defaultrefcontext{0}{springerlink}{nty/global//global/global}
\abx@aux@defaultrefcontext{0}{citeseerx}{nty/global//global/global}
\FN@pp@footnotehinttrue 
\global\csname @altsecnumformattrue\endcsname
\global\@namedef{scr@dte@chapter@lastmaxnumwidth}{12.48282pt}
\global\@namedef{scr@dte@section@lastmaxnumwidth}{21.1115pt}
\global\@namedef{scr@dte@subsection@lastmaxnumwidth}{26.27988pt}
\global\@namedef{scr@dte@figure@lastmaxnumwidth}{21.1115pt}
